tabel
板
	移動 X:0	回転X:0		スケールX:4	分割数　幅  : 1
	     Y:1	    Y:0			Y:0.1		高さ: 1
	     Z:0	    Z:0			Z:2		深度: 1

左手前
	移動 X:1.9	回転X:0		スケールX:0.1	分割数　幅  : 1
	     Y:0.5	    Y:0			Y:1		高さ: 1
	     Z:0.9	    Z:0			Z:0.1		深度: 1
	
左奥
	移動 X: 1.9	回転X:0		スケールX:0.1	分割数　幅  : 1
	     Y: 0.5	    Y:0			Y:1		高さ: 1
	     Z:-0.9	    Z:0			Z:0.1		深度: 1

右手前
	移動 X:-1.9	回転X:0		スケールX:0.1	分割数　幅  : 1
	     Y: 0.5	    Y:0			Y:1		高さ: 1
	     Z: 0.9	    Z:0			Z:0.1		深度: 1
	
右奥
	移動 X:-1.9	回転X:0		スケールX:0.1	分割数　幅  : 1
	     Y: 0.5	    Y:0			Y:1		高さ: 1
	     Z:-0.9	    Z:0			Z:0.1		深度: 1
	